E:\PROJECT\src\main\java\users\UserView.java
E:\PROJECT\src\main\java\tests\UserResourcesTests.java
E:\PROJECT\src\main\java\groups\GroupRepository.java
E:\PROJECT\src\main\java\users\UserResource.java
E:\PROJECT\src\main\java\Exceptions\UnAuthorized.java
E:\PROJECT\src\main\java\users\UserRepository.java
E:\PROJECT\src\main\java\tests\GroupResourcesTests.java
E:\PROJECT\src\main\java\groups\Group.java
E:\PROJECT\src\main\java\groups\GroupResources.java
E:\PROJECT\src\main\java\Exceptions\UserNameAlreadyExists.java
E:\PROJECT\src\main\java\groups\GroupInterface.java
E:\PROJECT\src\main\java\Exceptions\OldPasswordsDoesNotMatch.java
E:\PROJECT\src\main\java\users\UserInterface.java
E:\PROJECT\src\main\java\users\User.java
E:\PROJECT\src\main\java\audit\Audit.java
E:\PROJECT\src\main\java\rest\Application.java
